<?xml version="1.0" encoding="UTF-8" standalone="no"?>
<svg
   version="1.1"
   id="Layer_1"
   x="0px"
   y="0px"
   width="35cm"
   height="35cm"
   viewBox="0 0 349.99999 1322.8346"
   xml:space="preserve"
   sodipodi:docname="tshirt-front.svg"
   inkscape:version="1.1.2 (0a00cf5339, 2022-02-04)"
   inkscape:export-filename="/home/user/reproducible-promo-material/tshirts/2022/tshirt-front.png"
   inkscape:export-xdpi="1014.8489"
   inkscape:export-ydpi="1014.8489"
   xmlns:inkscape="http://www.inkscape.org/namespaces/inkscape"
   xmlns:sodipodi="http://sodipodi.sourceforge.net/DTD/sodipodi-0.dtd"
   xmlns="http://www.w3.org/2000/svg"
   xmlns:svg="http://www.w3.org/2000/svg"
   xmlns:rdf="http://www.w3.org/1999/02/22-rdf-syntax-ns#"
   xmlns:cc="http://creativecommons.org/ns#"
   xmlns:dc="http://purl.org/dc/elements/1.1/"><metadata
     id="metadata42"><rdf:RDF><cc:Work
         rdf:about=""><dc:format>image/svg+xml</dc:format><dc:type
           rdf:resource="http://purl.org/dc/dcmitype/StillImage" /><dc:title /></cc:Work></rdf:RDF></metadata><defs
     id="defs40" /><sodipodi:namedview
     pagecolor="#ffffff"
     bordercolor="#666666"
     borderopacity="1"
     objecttolerance="10"
     gridtolerance="10"
     guidetolerance="10"
     inkscape:pageopacity="0"
     inkscape:pageshadow="2"
     inkscape:window-width="1143"
     inkscape:window-height="1389"
     id="namedview38"
     showgrid="false"
     units="cm"
     inkscape:document-units="cm"
     inkscape:zoom="0.5"
     inkscape:cx="344"
     inkscape:cy="484"
     inkscape:window-x="2295"
     inkscape:window-y="18"
     inkscape:window-maximized="0"
     inkscape:current-layer="Layer_1"
     inkscape:document-rotation="0"
     inkscape:pagecheckerboard="0" /><style
     type="text/css"
     id="style2">
	.st0{fill:#1E5B96;}
	.st1{fill:#2B89D6;}
</style><g
     id="g35"
     transform="matrix(2.4073552,0,0,2.4073552,16.59605,99.66441)"><g
       id="g33"><g
         id="g26_2_"
         transform="rotate(90,40.7,44.8)"><g
           id="circle2_2_"><circle
             class="st0"
             cx="61.700001"
             cy="-33.5"
             r="12.6"
             id="circle4"
             style="fill:#1e5b96" /></g><g
           id="circle4_2_"><circle
             class="st0"
             cx="61.700001"
             cy="72.900002"
             r="12.6"
             id="circle7"
             style="fill:#1e5b96" /></g><g
           id="circle6_2_"><circle
             class="st0"
             cx="114.9"
             cy="19.700001"
             r="12.6"
             id="circle10"
             style="fill:#1e5b96" /></g><g
           id="circle8_2_"><circle
             class="st0"
             cx="8.5"
             cy="19.700001"
             r="12.6"
             id="circle13"
             style="fill:#1e5b96" /></g><g
           id="g12_2_"><g
             id="polygon10_2_"><polygon
               class="st1"
               points="100.5,-15.4 86.6,-29.3 86.6,-8.9 66.3,-8.9 80.2,5 100.5,5 "
               id="polygon16"
               style="fill:#2b89d6" /></g></g><g
           id="g16_2_"><g
             id="polygon14_2_"><polygon
               class="st1"
               points="47,38.2 33.1,24.3 33.1,44.6 12.7,44.6 26.6,58.5 47,58.5 "
               id="polygon20"
               style="fill:#2b89d6" /></g></g><g
           id="g20_2_"><g
             id="polygon18_2_"><polygon
               class="st1"
               points="80.1,34.4 66.2,48.3 86.6,48.2 86.5,68.7 100.4,54.8 100.5,34.4 "
               id="polygon24"
               style="fill:#2b89d6" /></g></g><g
           id="g24_2_"><g
             id="polygon22_2_"><polygon
               class="st1"
               points="26.6,-19.2 12.7,-5.2 33.1,-5.3 33,15.1 47,1.1 47,-19.2 "
               id="polygon28"
               style="fill:#2b89d6" /></g></g></g></g></g><text
     id="text36"
     y="471.15643"
     x="0.80137551"
     style="font-style:normal;font-variant:normal;font-weight:normal;font-stretch:normal;font-size:33.2822px;line-height:1.25;font-family:Overpass;-inkscape-font-specification:'Overpass, Normal';font-variant-ligatures:normal;font-variant-caps:normal;font-variant-numeric:normal;font-feature-settings:normal;text-align:start;letter-spacing:0px;word-spacing:0px;writing-mode:lr-tb;text-anchor:start;fill:#d62ba7;fill-opacity:1;stroke:none;stroke-width:0.445744"
     xml:space="preserve"><tspan
       y="471.15643"
       x="0.80137551"
       id="tspan34"
       sodipodi:role="line"
       style="stroke-width:0.445744"><tspan
         id="tspan880"
         style="fill:#2b89d6;fill-opacity:1;stroke-width:0.445744">reproducible</tspan><tspan
         id="tspan862"
         style="fill:#1e5b96;fill-opacity:1;stroke-width:0.445744">-</tspan><tspan
         id="tspan882"
         style="fill:#2b89d6;fill-opacity:1;stroke-width:0.445744">builds</tspan><tspan
         id="tspan878"
         style="fill:#1e5b96;fill-opacity:1;stroke-width:0.445744">.org</tspan></tspan></text></svg>
